%YAML 1.1
%TAG !u! tag:unity3d.com,2011:
--- !u!29 &1
OcclusionCullingSettings:
  m_ObjectHideFlags: 0
  serializedVersion: 2
  m_OcclusionBakeSettings:
    smallestOccluder: 5
    smallestHole: 0.25
    backfaceThreshold: 100
  m_SceneGUID: 00000000000000000000000000000000
  m_OcclusionCullingData: {fileID: 0}
--- !u!104 &2
RenderSettings:
  m_ObjectHideFlags: 0
  serializedVersion: 9
  m_Fog: 0
  m_FogColor: {r: 0.5, g: 0.5, b: 0.5, a: 1}
  m_FogMode: 3
  m_FogDensity: 0.01
  m_LinearFogStart: 0
  m_LinearFogEnd: 300
  m_AmbientSkyColor: {r: 0.509434, g: 0.509434, b: 0.509434, a: 1}
  m_AmbientEquatorColor: {r: 0.114, g: 0.125, b: 0.133, a: 1}
  m_AmbientGroundColor: {r: 0.047, g: 0.043, b: 0.035, a: 1}
  m_AmbientIntensity: 1
  m_AmbientMode: 3
  m_SubtractiveShadowColor: {r: 0.42, g: 0.478, b: 0.627, a: 1}
  m_SkyboxMaterial: {fileID: 2100000, guid: 2bd8959f5fbd3644aa33af1a155fc147, type: 2}
  m_HaloStrength: 0.5
  m_FlareStrength: 1
  m_FlareFadeSpeed: 3
  m_HaloTexture: {fileID: 0}
  m_SpotCookie: {fileID: 10001, guid: 0000000000000000e000000000000000, type: 0}
  m_DefaultReflectionMode: 0
  m_DefaultReflectionResolution: 128
  m_ReflectionBounces: 1
  m_ReflectionIntensity: 1
  m_CustomReflection: {fileID: 0}
  m_Sun: {fileID: 0}
  m_IndirectSpecularColor: {r: 0.50243527, g: 0.9836957, b: 1.1449757, a: 1}
  m_UseRadianceAmbientProbe: 0
--- !u!157 &3
LightmapSettings:
  m_ObjectHideFlags: 0
  serializedVersion: 11
  m_GIWorkflowMode: 1
  m_GISettings:
    serializedVersion: 2
    m_BounceScale: 1
    m_IndirectOutputScale: 1
    m_AlbedoBoost: 1
    m_TemporalCoherenceThreshold: 1
    m_EnvironmentLightingMode: 1
    m_EnableBakedLightmaps: 1
    m_EnableRealtimeLightmaps: 0
  m_LightmapEditorSettings:
    serializedVersion: 10
    m_Resolution: 2
    m_BakeResolution: 40
    m_AtlasSize: 1024
    m_AO: 0
    m_AOMaxDistance: 1
    m_CompAOExponent: 1
    m_CompAOExponentDirect: 0
    m_Padding: 2
    m_LightmapParameters: {fileID: 0}
    m_LightmapsBakeMode: 1
    m_TextureCompression: 1
    m_FinalGather: 0
    m_FinalGatherFiltering: 1
    m_FinalGatherRayCount: 256
    m_ReflectionCompression: 2
    m_MixedBakeMode: 2
    m_BakeBackend: 1
    m_PVRSampling: 1
    m_PVRDirectSampleCount: 32
    m_PVRSampleCount: 500
    m_PVRBounces: 2
    m_PVRFilterTypeDirect: 0
    m_PVRFilterTypeIndirect: 0
    m_PVRFilterTypeAO: 0
    m_PVRFilteringMode: 1
    m_PVRCulling: 1
    m_PVRFilteringGaussRadiusDirect: 1
    m_PVRFilteringGaussRadiusIndirect: 5
    m_PVRFilteringGaussRadiusAO: 2
    m_PVRFilteringAtrousPositionSigmaDirect: 0.5
    m_PVRFilteringAtrousPositionSigmaIndirect: 2
    m_PVRFilteringAtrousPositionSigmaAO: 1
    m_ShowResolutionOverlay: 1
  m_LightingDataAsset: {fileID: 112000002, guid: f6dda0006a40d2749a0d2624a32510ae,
    type: 2}
  m_UseShadowmask: 1
--- !u!196 &4
NavMeshSettings:
  serializedVersion: 2
  m_ObjectHideFlags: 0
  m_BuildSettings:
    serializedVersion: 2
    agentTypeID: 0
    agentRadius: 0.5
    agentHeight: 2
    agentSlope: 45
    agentClimb: 0.4
    ledgeDropHeight: 0
    maxJumpAcrossDistance: 0
    minRegionArea: 2
    manualCellSize: 0
    cellSize: 0.16666667
    manualTileSize: 0
    tileSize: 256
    accuratePlacement: 0
    debug:
      m_Flags: 0
  m_NavMeshData: {fileID: 0}
--- !u!1001 &658250608
Prefab:
  m_ObjectHideFlags: 0
  serializedVersion: 2
  m_Modification:
    m_TransformParent: {fileID: 0}
    m_Modifications:
    - target: {fileID: 4029457955714308, guid: dd2a3dc8007758347aa6e56bcf24e1f8, type: 2}
      propertyPath: m_LocalPosition.x
      value: -0.13
      objectReference: {fileID: 0}
    - target: {fileID: 4029457955714308, guid: dd2a3dc8007758347aa6e56bcf24e1f8, type: 2}
      propertyPath: m_LocalPosition.y
      value: -0.23000002
      objectReference: {fileID: 0}
    - target: {fileID: 4029457955714308, guid: dd2a3dc8007758347aa6e56bcf24e1f8, type: 2}
      propertyPath: m_LocalPosition.z
      value: 4.255206
      objectReference: {fileID: 0}
    - target: {fileID: 4029457955714308, guid: dd2a3dc8007758347aa6e56bcf24e1f8, type: 2}
      propertyPath: m_LocalRotation.x
      value: 0
      objectReference: {fileID: 0}
    - target: {fileID: 4029457955714308, guid: dd2a3dc8007758347aa6e56bcf24e1f8, type: 2}
      propertyPath: m_LocalRotation.y
      value: 0
      objectReference: {fileID: 0}
    - target: {fileID: 4029457955714308, guid: dd2a3dc8007758347aa6e56bcf24e1f8, type: 2}
      propertyPath: m_LocalRotation.z
      value: 0
      objectReference: {fileID: 0}
    - target: {fileID: 4029457955714308, guid: dd2a3dc8007758347aa6e56bcf24e1f8, type: 2}
      propertyPath: m_LocalRotation.w
      value: 1
      objectReference: {fileID: 0}
    - target: {fileID: 4029457955714308, guid: dd2a3dc8007758347aa6e56bcf24e1f8, type: 2}
      propertyPath: m_RootOrder
      value: 3
      objectReference: {fileID: 0}
    - target: {fileID: 137455995392545614, guid: dd2a3dc8007758347aa6e56bcf24e1f8,
        type: 2}
      propertyPath: m_AABB.m_Center.x
      value: 0
      objectReference: {fileID: 0}
    - target: {fileID: 137455995392545614, guid: dd2a3dc8007758347aa6e56bcf24e1f8,
        type: 2}
      propertyPath: m_AABB.m_Center.z
      value: 0.0000038146973
      objectReference: {fileID: 0}
    - target: {fileID: 183351542324355608, guid: dd2a3dc8007758347aa6e56bcf24e1f8,
        type: 2}
      propertyPath: m_SphereColliders.Array.data[0].first
      value: 
      objectReference: {fileID: 1637488632}
    m_RemovedComponents: []
  m_SourcePrefab: {fileID: 100100000, guid: dd2a3dc8007758347aa6e56bcf24e1f8, type: 2}
  m_IsPrefabAsset: 0
--- !u!4 &734165420
Transform:
  m_ObjectHideFlags: 0
  m_CorrespondingSourceObject: {fileID: 4451018337750444, guid: bb7afce7b3d461a4e85184c26a12b2b2,
    type: 2}
  m_PrefabInternal: {fileID: 0}
  m_GameObject: {fileID: 1940875173}
  m_LocalRotation: {x: 0, y: 0, z: 0, w: 1}
  m_LocalPosition: {x: 0, y: -2.02, z: 3.32}
  m_LocalScale: {x: 1, y: 1, z: 0.9617765}
  m_Children:
  - {fileID: 1228966146}
  - {fileID: 1102122424}
  - {fileID: 1314181090}
  m_Father: {fileID: 0}
  m_RootOrder: 2
  m_LocalEulerAnglesHint: {x: 0, y: 0, z: 0}
--- !u!1001 &749522222
Prefab:
  m_ObjectHideFlags: 0
  serializedVersion: 2
  m_Modification:
    m_TransformParent: {fileID: 0}
    m_Modifications:
    - target: {fileID: 4285077932247142, guid: 23d59b9d1a5cfa14aa80264808dbdcc1, type: 2}
      propertyPath: m_LocalPosition.x
      value: -17.49
      objectReference: {fileID: 0}
    - target: {fileID: 4285077932247142, guid: 23d59b9d1a5cfa14aa80264808dbdcc1, type: 2}
      propertyPath: m_LocalPosition.y
      value: 0
      objectReference: {fileID: 0}
    - target: {fileID: 4285077932247142, guid: 23d59b9d1a5cfa14aa80264808dbdcc1, type: 2}
      propertyPath: m_LocalPosition.z
      value: 7.36
      objectReference: {fileID: 0}
    - target: {fileID: 4285077932247142, guid: 23d59b9d1a5cfa14aa80264808dbdcc1, type: 2}
      propertyPath: m_LocalRotation.x
      value: 0
      objectReference: {fileID: 0}
    - target: {fileID: 4285077932247142, guid: 23d59b9d1a5cfa14aa80264808dbdcc1, type: 2}
      propertyPath: m_LocalRotation.y
      value: 0.7071068
      objectReference: {fileID: 0}
    - target: {fileID: 4285077932247142, guid: 23d59b9d1a5cfa14aa80264808dbdcc1, type: 2}
      propertyPath: m_LocalRotation.z
      value: 0
      objectReference: {fileID: 0}
    - target: {fileID: 4285077932247142, guid: 23d59b9d1a5cfa14aa80264808dbdcc1, type: 2}
      propertyPath: m_LocalRotation.w
      value: 0.7071068
      objectReference: {fileID: 0}
    - target: {fileID: 4285077932247142, guid: 23d59b9d1a5cfa14aa80264808dbdcc1, type: 2}
      propertyPath: m_RootOrder
      value: 6
      objectReference: {fileID: 0}
    m_RemovedComponents: []
  m_SourcePrefab: {fileID: 100100000, guid: 23d59b9d1a5cfa14aa80264808dbdcc1, type: 2}
  m_IsPrefabAsset: 0
--- !u!1001 &1102122423
Prefab:
  m_ObjectHideFlags: 0
  serializedVersion: 2
  m_Modification:
    m_TransformParent: {fileID: 734165420}
    m_Modifications:
    - target: {fileID: 4190848158293474, guid: fc7c9685399c54f40b853c514f6ed6b6, type: 2}
      propertyPath: m_LocalPosition.x
      value: -1.08
      objectReference: {fileID: 0}
    - target: {fileID: 4190848158293474, guid: fc7c9685399c54f40b853c514f6ed6b6, type: 2}
      propertyPath: m_LocalPosition.y
      value: 4.68
      objectReference: {fileID: 0}
    - target: {fileID: 4190848158293474, guid: fc7c9685399c54f40b853c514f6ed6b6, type: 2}
      propertyPath: m_LocalPosition.z
      value: -2.29
      objectReference: {fileID: 0}
    - target: {fileID: 4190848158293474, guid: fc7c9685399c54f40b853c514f6ed6b6, type: 2}
      propertyPath: m_LocalRotation.x
      value: 0.5
      objectReference: {fileID: 0}
    - target: {fileID: 4190848158293474, guid: fc7c9685399c54f40b853c514f6ed6b6, type: 2}
      propertyPath: m_LocalRotation.y
      value: 0.5
      objectReference: {fileID: 0}
    - target: {fileID: 4190848158293474, guid: fc7c9685399c54f40b853c514f6ed6b6, type: 2}
      propertyPath: m_LocalRotation.z
      value: 0.5
      objectReference: {fileID: 0}
    - target: {fileID: 4190848158293474, guid: fc7c9685399c54f40b853c514f6ed6b6, type: 2}
      propertyPath: m_LocalRotation.w
      value: 0.5
      objectReference: {fileID: 0}
    - target: {fileID: 4190848158293474, guid: fc7c9685399c54f40b853c514f6ed6b6, type: 2}
      propertyPath: m_RootOrder
      value: 1
      objectReference: {fileID: 0}
    - target: {fileID: 1419568287232770, guid: fc7c9685399c54f40b853c514f6ed6b6, type: 2}
      propertyPath: m_TagString
      value: Untagged
      objectReference: {fileID: 0}
    m_RemovedComponents: []
  m_SourcePrefab: {fileID: 100100000, guid: fc7c9685399c54f40b853c514f6ed6b6, type: 2}
  m_IsPrefabAsset: 0
--- !u!4 &1102122424 stripped
Transform:
  m_CorrespondingSourceObject: {fileID: 4190848158293474, guid: fc7c9685399c54f40b853c514f6ed6b6,
    type: 2}
  m_PrefabInternal: {fileID: 1102122423}
--- !u!1 &1102122425 stripped
GameObject:
  m_CorrespondingSourceObject: {fileID: 1419568287232770, guid: fc7c9685399c54f40b853c514f6ed6b6,
    type: 2}
  m_PrefabInternal: {fileID: 1102122423}
--- !u!114 &1102122426
MonoBehaviour:
  m_ObjectHideFlags: 0
  m_CorrespondingSourceObject: {fileID: 0}
  m_PrefabInternal: {fileID: 0}
  m_GameObject: {fileID: 1102122425}
  m_Enabled: 1
  m_EditorHideFlags: 0
  m_Script: {fileID: 11500000, guid: 0f88baf92c93f7042a8694eee22b290d, type: 3}
  m_Name: 
  m_EditorClassIdentifier: 
--- !u!65 &1102122427
BoxCollider:
  m_ObjectHideFlags: 0
  m_CorrespondingSourceObject: {fileID: 0}
  m_PrefabInternal: {fileID: 0}
  m_GameObject: {fileID: 1102122425}
  m_Material: {fileID: 0}
  m_IsTrigger: 1
  m_Enabled: 1
  serializedVersion: 2
  m_Size: {x: 0.44, y: 1.72, z: 1}
  m_Center: {x: 0.55, y: 1.99, z: 0.82}
--- !u!1001 &1145084041
Prefab:
  m_ObjectHideFlags: 0
  serializedVersion: 2
  m_Modification:
    m_TransformParent: {fileID: 0}
    m_Modifications:
    - target: {fileID: 4179646447535426, guid: 4aa9c6a54f71c944584d842d70ae0aca, type: 2}
      propertyPath: m_LocalPosition.x
      value: 2.5018024
      objectReference: {fileID: 0}
    - target: {fileID: 4179646447535426, guid: 4aa9c6a54f71c944584d842d70ae0aca, type: 2}
      propertyPath: m_LocalPosition.y
      value: 4.477118
      objectReference: {fileID: 0}
    - target: {fileID: 4179646447535426, guid: 4aa9c6a54f71c944584d842d70ae0aca, type: 2}
      propertyPath: m_LocalPosition.z
      value: 2.2852468
      objectReference: {fileID: 0}
    - target: {fileID: 4179646447535426, guid: 4aa9c6a54f71c944584d842d70ae0aca, type: 2}
      propertyPath: m_LocalRotation.x
      value: -0
      objectReference: {fileID: 0}
    - target: {fileID: 4179646447535426, guid: 4aa9c6a54f71c944584d842d70ae0aca, type: 2}
      propertyPath: m_LocalRotation.y
      value: -0
      objectReference: {fileID: 0}
    - target: {fileID: 4179646447535426, guid: 4aa9c6a54f71c944584d842d70ae0aca, type: 2}
      propertyPath: m_LocalRotation.z
      value: -0
      objectReference: {fileID: 0}
    - target: {fileID: 4179646447535426, guid: 4aa9c6a54f71c944584d842d70ae0aca, type: 2}
      propertyPath: m_LocalRotation.w
      value: 1
      objectReference: {fileID: 0}
    - target: {fileID: 4179646447535426, guid: 4aa9c6a54f71c944584d842d70ae0aca, type: 2}
      propertyPath: m_RootOrder
      value: 7
      objectReference: {fileID: 0}
    m_RemovedComponents: []
  m_SourcePrefab: {fileID: 100100000, guid: 4aa9c6a54f71c944584d842d70ae0aca, type: 2}
  m_IsPrefabAsset: 0
--- !u!1 &1209720778
GameObject:
  m_ObjectHideFlags: 0
  m_CorrespondingSourceObject: {fileID: 0}
  m_PrefabInternal: {fileID: 0}
  serializedVersion: 6
  m_Component:
  - component: {fileID: 1209720780}
  - component: {fileID: 1209720779}
  m_Layer: 0
  m_Name: Directional Light
  m_TagString: Untagged
  m_Icon: {fileID: 0}
  m_NavMeshLayer: 0
  m_StaticEditorFlags: 0
  m_IsActive: 1
--- !u!108 &1209720779
Light:
  m_ObjectHideFlags: 0
  m_CorrespondingSourceObject: {fileID: 0}
  m_PrefabInternal: {fileID: 0}
  m_GameObject: {fileID: 1209720778}
  m_Enabled: 1
  serializedVersion: 8
  m_Type: 1
  m_Color: {r: 1, g: 0.95686275, b: 0.8392157, a: 1}
  m_Intensity: 1
  m_Range: 10
  m_SpotAngle: 30
  m_CookieSize: 10
  m_Shadows:
    m_Type: 2
    m_Resolution: -1
    m_CustomResolution: -1
    m_Strength: 1
    m_Bias: 0.05
    m_NormalBias: 0.4
    m_NearPlane: 0.2
  m_Cookie: {fileID: 0}
  m_DrawHalo: 0
  m_Flare: {fileID: 0}
  m_RenderMode: 0
  m_CullingMask:
    serializedVersion: 2
    m_Bits: 4294967295
  m_Lightmapping: 4
  m_LightShadowCasterMode: 0
  m_AreaSize: {x: 1, y: 1}
  m_BounceIntensity: 1
  m_ColorTemperature: 6570
  m_UseColorTemperature: 0
  m_ShadowRadius: 0
  m_ShadowAngle: 0
--- !u!4 &1209720780
Transform:
  m_ObjectHideFlags: 0
  m_CorrespondingSourceObject: {fileID: 0}
  m_PrefabInternal: {fileID: 0}
  m_GameObject: {fileID: 1209720778}
  m_LocalRotation: {x: 0.40821788, y: -0.23456968, z: 0.10938163, w: 0.8754261}
  m_LocalPosition: {x: 0, y: 3, z: 0}
  m_LocalScale: {x: 1, y: 1, z: 1}
  m_Children: []
  m_Father: {fileID: 0}
  m_RootOrder: 0
  m_LocalEulerAnglesHint: {x: 50, y: -30, z: 0}
--- !u!1001 &1228966145
Prefab:
  m_ObjectHideFlags: 0
  serializedVersion: 2
  m_Modification:
    m_TransformParent: {fileID: 734165420}
    m_Modifications:
    - target: {fileID: 4030056436020578, guid: 32f98d34a72d19443b15fac32eeefb66, type: 2}
      propertyPath: m_LocalPosition.x
      value: -1.08
      objectReference: {fileID: 0}
    - target: {fileID: 4030056436020578, guid: 32f98d34a72d19443b15fac32eeefb66, type: 2}
      propertyPath: m_LocalPosition.y
      value: -1.28
      objectReference: {fileID: 0}
    - target: {fileID: 4030056436020578, guid: 32f98d34a72d19443b15fac32eeefb66, type: 2}
      propertyPath: m_LocalPosition.z
      value: -2.2
      objectReference: {fileID: 0}
    - target: {fileID: 4030056436020578, guid: 32f98d34a72d19443b15fac32eeefb66, type: 2}
      propertyPath: m_LocalRotation.x
      value: 0
      objectReference: {fileID: 0}
    - target: {fileID: 4030056436020578, guid: 32f98d34a72d19443b15fac32eeefb66, type: 2}
      propertyPath: m_LocalRotation.y
      value: 0.7071068
      objectReference: {fileID: 0}
    - target: {fileID: 4030056436020578, guid: 32f98d34a72d19443b15fac32eeefb66, type: 2}
      propertyPath: m_LocalRotation.z
      value: 0
      objectReference: {fileID: 0}
    - target: {fileID: 4030056436020578, guid: 32f98d34a72d19443b15fac32eeefb66, type: 2}
      propertyPath: m_LocalRotation.w
      value: 0.70710677
      objectReference: {fileID: 0}
    - target: {fileID: 4030056436020578, guid: 32f98d34a72d19443b15fac32eeefb66, type: 2}
      propertyPath: m_RootOrder
      value: 0
      objectReference: {fileID: 0}
    - target: {fileID: 4030056436020578, guid: 32f98d34a72d19443b15fac32eeefb66, type: 2}
      propertyPath: m_LocalScale.y
      value: 4.4391527
      objectReference: {fileID: 0}
    - target: {fileID: 4030056436020578, guid: 32f98d34a72d19443b15fac32eeefb66, type: 2}
      propertyPath: m_LocalScale.z
      value: 1.38783
      objectReference: {fileID: 0}
    - target: {fileID: 1219066964125216, guid: 32f98d34a72d19443b15fac32eeefb66, type: 2}
      propertyPath: m_Name
      value: Pared Inmovil (2)
      objectReference: {fileID: 0}
    - target: {fileID: 4030056436020578, guid: 32f98d34a72d19443b15fac32eeefb66, type: 2}
      propertyPath: m_LocalEulerAnglesHint.y
      value: 90.00001
      objectReference: {fileID: 0}
    - target: {fileID: 4030056436020578, guid: 32f98d34a72d19443b15fac32eeefb66, type: 2}
      propertyPath: m_LocalEulerAnglesHint.z
      value: 0
      objectReference: {fileID: 0}
    m_RemovedComponents: []
  m_SourcePrefab: {fileID: 100100000, guid: 32f98d34a72d19443b15fac32eeefb66, type: 2}
  m_IsPrefabAsset: 0
--- !u!4 &1228966146 stripped
Transform:
  m_CorrespondingSourceObject: {fileID: 4030056436020578, guid: 32f98d34a72d19443b15fac32eeefb66,
    type: 2}
  m_PrefabInternal: {fileID: 1228966145}
--- !u!1001 &1314181089
Prefab:
  m_ObjectHideFlags: 0
  serializedVersion: 2
  m_Modification:
    m_TransformParent: {fileID: 734165420}
    m_Modifications:
    - target: {fileID: 4030056436020578, guid: 32f98d34a72d19443b15fac32eeefb66, type: 2}
      propertyPath: m_LocalPosition.x
      value: -1.08
      objectReference: {fileID: 0}
    - target: {fileID: 4030056436020578, guid: 32f98d34a72d19443b15fac32eeefb66, type: 2}
      propertyPath: m_LocalPosition.y
      value: 10.56
      objectReference: {fileID: 0}
    - target: {fileID: 4030056436020578, guid: 32f98d34a72d19443b15fac32eeefb66, type: 2}
      propertyPath: m_LocalPosition.z
      value: 3.14
      objectReference: {fileID: 0}
    - target: {fileID: 4030056436020578, guid: 32f98d34a72d19443b15fac32eeefb66, type: 2}
      propertyPath: m_LocalRotation.x
      value: -0
      objectReference: {fileID: 0}
    - target: {fileID: 4030056436020578, guid: 32f98d34a72d19443b15fac32eeefb66, type: 2}
      propertyPath: m_LocalRotation.y
      value: 0.7071068
      objectReference: {fileID: 0}
    - target: {fileID: 4030056436020578, guid: 32f98d34a72d19443b15fac32eeefb66, type: 2}
      propertyPath: m_LocalRotation.z
      value: -0
      objectReference: {fileID: 0}
    - target: {fileID: 4030056436020578, guid: 32f98d34a72d19443b15fac32eeefb66, type: 2}
      propertyPath: m_LocalRotation.w
      value: 0.70710677
      objectReference: {fileID: 0}
    - target: {fileID: 4030056436020578, guid: 32f98d34a72d19443b15fac32eeefb66, type: 2}
      propertyPath: m_RootOrder
      value: 2
      objectReference: {fileID: 0}
    - target: {fileID: 4030056436020578, guid: 32f98d34a72d19443b15fac32eeefb66, type: 2}
      propertyPath: m_LocalScale.y
      value: 4.43915
      objectReference: {fileID: 0}
    - target: {fileID: 4030056436020578, guid: 32f98d34a72d19443b15fac32eeefb66, type: 2}
      propertyPath: m_LocalScale.z
      value: 1.38783
      objectReference: {fileID: 0}
    - target: {fileID: 1219066964125216, guid: 32f98d34a72d19443b15fac32eeefb66, type: 2}
      propertyPath: m_Name
      value: Pared Inmovil (3)
      objectReference: {fileID: 0}
    - target: {fileID: 4030056436020578, guid: 32f98d34a72d19443b15fac32eeefb66, type: 2}
      propertyPath: m_LocalEulerAnglesHint.y
      value: 90.00001
      objectReference: {fileID: 0}
    - target: {fileID: 4030056436020578, guid: 32f98d34a72d19443b15fac32eeefb66, type: 2}
      propertyPath: m_LocalEulerAnglesHint.z
      value: 0
      objectReference: {fileID: 0}
    - target: {fileID: 4030056436020578, guid: 32f98d34a72d19443b15fac32eeefb66, type: 2}
      propertyPath: m_LocalScale.x
      value: 1.0000036
      objectReference: {fileID: 0}
    m_RemovedComponents: []
  m_SourcePrefab: {fileID: 100100000, guid: 32f98d34a72d19443b15fac32eeefb66, type: 2}
  m_IsPrefabAsset: 0
--- !u!4 &1314181090 stripped
Transform:
  m_CorrespondingSourceObject: {fileID: 4030056436020578, guid: 32f98d34a72d19443b15fac32eeefb66,
    type: 2}
  m_PrefabInternal: {fileID: 1314181089}
--- !u!1 &1572158703
GameObject:
  m_ObjectHideFlags: 0
  m_CorrespondingSourceObject: {fileID: 0}
  m_PrefabInternal: {fileID: 0}
  serializedVersion: 6
  m_Component:
  - component: {fileID: 1572158706}
  - component: {fileID: 1572158705}
  - component: {fileID: 1572158704}
  m_Layer: 0
  m_Name: EventSystem
  m_TagString: Untagged
  m_Icon: {fileID: 0}
  m_NavMeshLayer: 0
  m_StaticEditorFlags: 0
  m_IsActive: 1
--- !u!114 &1572158704
MonoBehaviour:
  m_ObjectHideFlags: 0
  m_CorrespondingSourceObject: {fileID: 0}
  m_PrefabInternal: {fileID: 0}
  m_GameObject: {fileID: 1572158703}
  m_Enabled: 1
  m_EditorHideFlags: 0
  m_Script: {fileID: 1077351063, guid: f70555f144d8491a825f0804e09c671c, type: 3}
  m_Name: 
  m_EditorClassIdentifier: 
  m_HorizontalAxis: Horizontal
  m_VerticalAxis: Vertical
  m_SubmitButton: Submit
  m_CancelButton: Cancel
  m_InputActionsPerSecond: 10
  m_RepeatDelay: 0.5
  m_ForceModuleActive: 0
--- !u!114 &1572158705
MonoBehaviour:
  m_ObjectHideFlags: 0
  m_CorrespondingSourceObject: {fileID: 0}
  m_PrefabInternal: {fileID: 0}
  m_GameObject: {fileID: 1572158703}
  m_Enabled: 1
  m_EditorHideFlags: 0
  m_Script: {fileID: -619905303, guid: f70555f144d8491a825f0804e09c671c, type: 3}
  m_Name: 
  m_EditorClassIdentifier: 
  m_FirstSelected: {fileID: 0}
  m_sendNavigationEvents: 1
  m_DragThreshold: 10
--- !u!4 &1572158706
Transform:
  m_ObjectHideFlags: 0
  m_CorrespondingSourceObject: {fileID: 0}
  m_PrefabInternal: {fileID: 0}
  m_GameObject: {fileID: 1572158703}
  m_LocalRotation: {x: 0, y: 0, z: 0, w: 1}
  m_LocalPosition: {x: 0, y: 0, z: 0}
  m_LocalScale: {x: 1, y: 1, z: 1}
  m_Children: []
  m_Father: {fileID: 0}
  m_RootOrder: 5
  m_LocalEulerAnglesHint: {x: 0, y: 0, z: 0}
--- !u!1001 &1637488631
Prefab:
  m_ObjectHideFlags: 0
  serializedVersion: 2
  m_Modification:
    m_TransformParent: {fileID: 0}
    m_Modifications:
    - target: {fileID: 4988352652206266, guid: 79c7af40aa09ff34db9e273525123658, type: 2}
      propertyPath: m_LocalPosition.x
      value: 0.01
      objectReference: {fileID: 0}
    - target: {fileID: 4988352652206266, guid: 79c7af40aa09ff34db9e273525123658, type: 2}
      propertyPath: m_LocalPosition.y
      value: 2.7800002
      objectReference: {fileID: 0}
    - target: {fileID: 4988352652206266, guid: 79c7af40aa09ff34db9e273525123658, type: 2}
      propertyPath: m_LocalPosition.z
      value: -4.66
      objectReference: {fileID: 0}
    - target: {fileID: 4988352652206266, guid: 79c7af40aa09ff34db9e273525123658, type: 2}
      propertyPath: m_LocalRotation.x
      value: -0.15479659
      objectReference: {fileID: 0}
    - target: {fileID: 4988352652206266, guid: 79c7af40aa09ff34db9e273525123658, type: 2}
      propertyPath: m_LocalRotation.y
      value: 0
      objectReference: {fileID: 0}
    - target: {fileID: 4988352652206266, guid: 79c7af40aa09ff34db9e273525123658, type: 2}
      propertyPath: m_LocalRotation.z
      value: 0
      objectReference: {fileID: 0}
    - target: {fileID: 4988352652206266, guid: 79c7af40aa09ff34db9e273525123658, type: 2}
      propertyPath: m_LocalRotation.w
      value: 0.9879464
      objectReference: {fileID: 0}
    - target: {fileID: 4988352652206266, guid: 79c7af40aa09ff34db9e273525123658, type: 2}
      propertyPath: m_RootOrder
      value: 4
      objectReference: {fileID: 0}
    - target: {fileID: 1977655584386230, guid: 79c7af40aa09ff34db9e273525123658, type: 2}
      propertyPath: m_Name
      value: MainPlayer
      objectReference: {fileID: 0}
    - target: {fileID: 120976523401297124, guid: 79c7af40aa09ff34db9e273525123658,
        type: 2}
      propertyPath: m_Enabled
      value: 0
      objectReference: {fileID: 0}
    - target: {fileID: 120976523401297124, guid: 79c7af40aa09ff34db9e273525123658,
        type: 2}
      propertyPath: m_UseWorldSpace
      value: 1
      objectReference: {fileID: 0}
    - target: {fileID: 4988352652206266, guid: 79c7af40aa09ff34db9e273525123658, type: 2}
      propertyPath: m_LocalEulerAnglesHint.x
      value: -17.81
      objectReference: {fileID: 0}
    m_RemovedComponents: []
  m_SourcePrefab: {fileID: 100100000, guid: 79c7af40aa09ff34db9e273525123658, type: 2}
  m_IsPrefabAsset: 0
--- !u!135 &1637488632 stripped
SphereCollider:
  m_CorrespondingSourceObject: {fileID: 135244837657519670, guid: 79c7af40aa09ff34db9e273525123658,
    type: 2}
  m_PrefabInternal: {fileID: 1637488631}
--- !u!1001 &1822313738
Prefab:
  m_ObjectHideFlags: 0
  serializedVersion: 2
  m_Modification:
    m_TransformParent: {fileID: 0}
    m_Modifications:
    - target: {fileID: 4408677314670766, guid: 69a2d9e4f5bc1f94daa14068b0ae1da5, type: 2}
      propertyPath: m_LocalPosition.x
      value: 2.5018024
      objectReference: {fileID: 0}
    - target: {fileID: 4408677314670766, guid: 69a2d9e4f5bc1f94daa14068b0ae1da5, type: 2}
      propertyPath: m_LocalPosition.y
      value: 4.477118
      objectReference: {fileID: 0}
    - target: {fileID: 4408677314670766, guid: 69a2d9e4f5bc1f94daa14068b0ae1da5, type: 2}
      propertyPath: m_LocalPosition.z
      value: 2.2852468
      objectReference: {fileID: 0}
    - target: {fileID: 4408677314670766, guid: 69a2d9e4f5bc1f94daa14068b0ae1da5, type: 2}
      propertyPath: m_LocalRotation.x
      value: 0
      objectReference: {fileID: 0}
    - target: {fileID: 4408677314670766, guid: 69a2d9e4f5bc1f94daa14068b0ae1da5, type: 2}
      propertyPath: m_LocalRotation.y
      value: 0
      objectReference: {fileID: 0}
    - target: {fileID: 4408677314670766, guid: 69a2d9e4f5bc1f94daa14068b0ae1da5, type: 2}
      propertyPath: m_LocalRotation.z
      value: 0
      objectReference: {fileID: 0}
    - target: {fileID: 4408677314670766, guid: 69a2d9e4f5bc1f94daa14068b0ae1da5, type: 2}
      propertyPath: m_LocalRotation.w
      value: 1
      objectReference: {fileID: 0}
    - target: {fileID: 4408677314670766, guid: 69a2d9e4f5bc1f94daa14068b0ae1da5, type: 2}
      propertyPath: m_RootOrder
      value: 1
      objectReference: {fileID: 0}
    m_RemovedComponents: []
  m_SourcePrefab: {fileID: 100100000, guid: 69a2d9e4f5bc1f94daa14068b0ae1da5, type: 2}
  m_IsPrefabAsset: 0
--- !u!1 &1940875173
GameObject:
  m_ObjectHideFlags: 0
  m_CorrespondingSourceObject: {fileID: 1591050867558534, guid: bb7afce7b3d461a4e85184c26a12b2b2,
    type: 2}
  m_PrefabInternal: {fileID: 0}
  serializedVersion: 6
  m_Component:
  - component: {fileID: 734165420}
  m_Layer: 0
  m_Name: Platforms
  m_TagString: Untagged
  m_Icon: {fileID: 0}
  m_NavMeshLayer: 0
  m_StaticEditorFlags: 0
  m_IsActive: 1
--- !u!1001 &1977648065
Prefab:
  m_ObjectHideFlags: 0
  serializedVersion: 2
  m_Modification:
    m_TransformParent: {fileID: 0}
    m_Modifications:
    - target: {fileID: 4822861665072146, guid: 06dc7d2e01f3b4444923b1b9fd8f5cc3, type: 2}
      propertyPath: m_LocalPosition.x
      value: 0
      objectReference: {fileID: 0}
    - target: {fileID: 4822861665072146, guid: 06dc7d2e01f3b4444923b1b9fd8f5cc3, type: 2}
      propertyPath: m_LocalPosition.y
      value: 0
      objectReference: {fileID: 0}
    - target: {fileID: 4822861665072146, guid: 06dc7d2e01f3b4444923b1b9fd8f5cc3, type: 2}
      propertyPath: m_LocalPosition.z
      value: 0
      objectReference: {fileID: 0}
    - target: {fileID: 4822861665072146, guid: 06dc7d2e01f3b4444923b1b9fd8f5cc3, type: 2}
      propertyPath: m_LocalRotation.x
      value: 0
      objectReference: {fileID: 0}
    - target: {fileID: 4822861665072146, guid: 06dc7d2e01f3b4444923b1b9fd8f5cc3, type: 2}
      propertyPath: m_LocalRotation.y
      value: 0
      objectReference: {fileID: 0}
    - target: {fileID: 4822861665072146, guid: 06dc7d2e01f3b4444923b1b9fd8f5cc3, type: 2}
      propertyPath: m_LocalRotation.z
      value: 0
      objectReference: {fileID: 0}
    - target: {fileID: 4822861665072146, guid: 06dc7d2e01f3b4444923b1b9fd8f5cc3, type: 2}
      propertyPath: m_LocalRotation.w
      value: 1
      objectReference: {fileID: 0}
    - target: {fileID: 4822861665072146, guid: 06dc7d2e01f3b4444923b1b9fd8f5cc3, type: 2}
      propertyPath: m_RootOrder
      value: 8
      objectReference: {fileID: 0}
    - target: {fileID: 4335386097118496, guid: 06dc7d2e01f3b4444923b1b9fd8f5cc3, type: 2}
      propertyPath: m_LocalPosition.x
      value: 13.460022
      objectReference: {fileID: 0}
    - target: {fileID: 4335386097118496, guid: 06dc7d2e01f3b4444923b1b9fd8f5cc3, type: 2}
      propertyPath: m_LocalPosition.y
      value: 11.000015
      objectReference: {fileID: 0}
    - target: {fileID: 4335386097118496, guid: 06dc7d2e01f3b4444923b1b9fd8f5cc3, type: 2}
      propertyPath: m_LocalPosition.z
      value: 4.89
      objectReference: {fileID: 0}
    m_RemovedComponents: []
  m_SourcePrefab: {fileID: 100100000, guid: 06dc7d2e01f3b4444923b1b9fd8f5cc3, type: 2}
  m_IsPrefabAsset: 0
